{
  "defaultConnection": "default",
  "connections": {
    "default": {
      "connector": "strapi-hook-mongoose",

      "settings": {
        "host": "${process.env.DATABASE_HOST || 'db'}",
        "port": "${process.env.DATABASE_PORT || 27017}",
        "srv": "${process.env.DATABASE_SRV || false}",
        "database": "${process.env.DATABASE_NAME || 'test'}",
        "username": "${process.env.DATABASE_USERNAME || 'root'}",
        "password": "${process.env.DATABASE_PASSWORD || 'example'}",
        "ssl": "${process.env.DATABASE_SSL || false}"
      },
      "options": {
        "ssl": "${process.env.DATABASE_SSL || false}",
        "authenticationDatabase": "${process.env.DATABASE_AUTHENTICATION_DATABASE || 'admin'}"
      }
    }
  }
}
