{
  "routes": [
    {
      "method": "POST",
      "path": "/users/me",
      "handler": "User.me",
      "config": {
        "policies": []
      }
    },
    {
      "method": "GET",
      "path": "/users/show",
      "handler": "User.show",
      "config": {
        "policies": []
      }
    }
  ]
}
